{
  "blocks": {
    "baseInfo": {
      "date": null,
      "answerCollect": false,
      "answersAfterDateOver": false,
      "guestsMax": 0,
      "showEmptySpaces": false,
      "description": ""
    },
    "quizzes": [],
    "guests": {
      "additionalGuest": false,
      "additionalGuestMax": false,
      "collectInfo": {
        "firstName": false,
        "lastName": false,
        "city": false,
        "email": false,
        "firstNameRequired": false,
        "lastNameRequired": false,
        "cityRequired": false,
        "emailRequired": false
      }
    },
    "advancedSettings": {
      "allowEditOnAnswerPage": false,
      "allowEditAfterSend": false,
      "allowSendMessagesWithAnswer": false,
      "sendMailAfterAnswer": false,
      "yesDescription": "",
      "noDescription": ""
    }
  }
}