[
  {
    "title": [
      {"region": "ru_RU", "value": "Demo 1"},
      {"region": "en_GB", "value": "Demo 1"},
      {"region": "en_US", "value": "Demo 1"}
    ],
    "description": [
      {"region": "ru_RU", "value": "Demo 2"},
      {"region": "en_GB", "value": "Demo 2"},
      {"region": "en_US", "value": "Demo 2"}
    ],
    "definitions": [
      {
        "color": "#ff0000",
        "width": 570,
        "height": 810,
        "attachment": "demo-1/color/red/size/570x810/attachment.png"
      },
      {
        "color": "#ff0000",
        "width": 570,
        "height": 570,
        "attachment": "demo-1/color/red/size/570x570/attachment.png"
      },
      {
        "color": "#ff0000",
        "width": 810,
        "height": 570,
        "attachment": "demo-1/color/red/size/810x570/attachment.png"
      },
      {
        "color": "#ffffff",
        "width": 810,
        "height": 570,
        "attachment": "demo-1/color/white/size/810x570/attachment.png"
      },
      {
        "color": "#ffffff",
        "width": 570,
        "height": 810,
        "attachment": "demo-1/color/white/size/570x810/attachment.png"
      },
      {
        "color": "#ffffff",
        "width": 570,
        "height": 570,
        "attachment": "demo-1/color/white/size/570x570/attachment.png"
      }
    ]
  },
  {
    "title": [
      {"region": "ru_RU", "value": "Demo 2"},
      {"region": "en_GB", "value": "Demo 2"},
      {"region": "en_US", "value": "Demo 2"}
    ],
    "description": [
      {"region": "ru_RU", "value": "Demo 2"},
      {"region": "en_GB", "value": "Demo 2"},
      {"region": "en_US", "value": "Demo 2"}
    ],
    "definitions": [
      {
        "color": "#ffffff",
        "width": 810,
        "height": 570,
        "attachment": "demo-2/color/white/size/810x570/attachment.png"
      },
      {
        "color": "#ff0000",
        "width": 810,
        "height": 570,
        "attachment": "demo-2/color/red/size/810x570/attachment.png"
      }
    ]
  }
]