<?xml version="1.0" encoding="utf-8"?>
<!-- Generator: Adobe Illustrator 18.1.0, SVG Export Plug-In . SVG Version: 6.00 Build 0)  -->
<svg version="1.1" id="_x32__x5F_3__x28_копия_x29_"
	 xmlns="http://www.w3.org/2000/svg" xmlns:xlink="http://www.w3.org/1999/xlink" x="0px" y="0px" viewBox="0 0 76.3 77.3"
	 enable-background="new 0 0 76.3 77.3" xml:space="preserve">
<g>
	<path fill-rule="evenodd" clip-rule="evenodd" fill="#F0905B" d="M70.4,46.8c-0.3-0.6-0.4-1.2-0.4-1.8c0-1.1,0.6-2,1.5-2.4
		c0.8-0.3,1.8,0,2.4,0.9c0.6,0.9,1,2,1.1,3.2c0.2,3.4-0.8,6.2-2.9,8.6c-0.1,0.1-0.2,0.3-0.3,0.2c-0.1-0.1-0.1-0.2-0.1-0.4
		c-0.1-1.5-0.9-2.4-2-3c-0.7-0.4-1.5-0.7-2.2-1.2c-0.8-0.6-1-1.5-0.9-2.5c0.1-0.9,0.6-1.6,1.3-1.9c0.5-0.2,1.1-0.2,1.6,0
		C69.8,46.6,70.1,46.7,70.4,46.8z"/>
	<path fill-rule="evenodd" clip-rule="evenodd" fill="#F0905B" d="M64.4,44.3c-2-0.3-3.2-1.6-3.8-3.4c-1.3-3.7,0.9-8.5,4.6-9.7
		c0.5-0.2,0.8-0.4,1.1-0.9c1-1.7,2.5-2.8,4.6-2.6c1.2,0.1,2.3,0.6,3.1,1.5c1.7,1.7,2.4,3.7,2.4,6.1c0,2-0.7,3.7-2.2,5.1
		c-1,0.9-2.2,1.3-3.5,1.1c-0.3,0-0.5,0.1-0.7,0.3c-1,1.2-2.2,2.1-3.7,2.5C65.6,44.3,65,44.4,64.4,44.3z M62.9,37.9
		c-0.1,0.9-0.1,1.5,0.1,2.2c0.4,1.2,1.3,2,2.5,1.9c1-0.1,1.8-0.6,2.5-1.3c0.2-0.2,0.1-0.3-0.1-0.4c-1.7-1.5-2.6-3.5-2.7-5.8
		c0-0.1,0-0.3-0.1-0.4c-0.2-0.1-0.3,0.1-0.4,0.2C63.7,35.2,63.1,36.5,62.9,37.9z M70.1,29.8c-0.7-0.1-1.4,0.2-1.9,0.7
		C68,30.8,68,30.9,68.3,31c1.4,0.5,2.3,1.4,2.9,2.7c0.7,1.6,0.7,3.2,0.3,4.8c0,0.2-0.2,0.4,0,0.5c0.2,0.1,0.3-0.1,0.4-0.2
		c0.6-0.5,0.9-1.1,1.2-1.8c0.6-1.8,0.3-3.6-0.6-5.3C72,30.8,71.2,30.1,70.1,29.8z M67,33.7c-0.1,1.1,0.2,2.7,0.8,3.7
		c0.3,0.5,0.6,0.9,1,1.2c0.2,0.2,0.4,0.1,0.5-0.1c0.4-1.2,0.5-2.4,0-3.6c-0.3-0.8-0.9-1.3-1.7-1.5C67.2,33.2,67,33.3,67,33.7z"/>
	<path fill-rule="evenodd" clip-rule="evenodd" fill="#DCDC53" d="M49.4,21c-0.4-0.4-0.5-0.7-0.7-1.1c-0.1-0.2-0.3-0.4-0.5-0.6
		c-0.9-0.7-2.1-0.5-2.9,0.4c-0.7,0.9-1.2,1.9-1.6,2.9c0,0.1-0.1,0.3-0.2,0.3c-0.1,0-0.2-0.2-0.2-0.3c-0.1-0.5-0.2-0.9-0.4-1.4
		c-0.5-1.7-1.5-3-3.2-3.7c-0.9-0.3-1.8-0.5-2.6-0.7c-1.3-0.3-2.7-0.5-3.4-2C33.5,16,33.4,17,33.4,18c0,1.9,0.5,3.7,1.9,5.1
		c0.8,0.8,1.8,1.4,2.9,1.9c0.6,0.3,1.2,0.7,1.7,1.3c0.1,0.1,0.2,0.3,0.2,0.4c-0.1,0.2-0.3,0-0.4,0c-0.3-0.1-0.5-0.3-0.8-0.1
		c-1.4,1.1-3.1,1.3-4.8,1.1c-0.5-0.1-1.1-0.1-1.6-0.2c0.5,0.5,0.9,0.9,1.1,1.6c0.2,0.6,0.2,1.3,0.3,2c0,0.5,0.1,0.9,0.3,1.4
		c0.5,1,1,1.1,1.9,0.5c1-0.7,1.7-1.6,2.4-2.5c0.1-0.2,0.1-0.3,0-0.4c-0.2-0.3-0.3-0.5-0.4-0.8c0-0.1-0.1-0.2,0-0.2
		c0.1-0.1,0.2,0,0.2,0.1c0.1,0,0.2,0.1,0.3,0.2c1.2,0.7,2.5,1.2,4,1.2c2.1,0,3.6-1.3,4.4-3.3c0.4-1.2,0.6-2.5,0.7-3.8
		c0-0.4,0.1-0.8,0.3-1.2C48.1,21.3,48.7,21.1,49.4,21z M50.1,22.8c-0.4,0-0.9,0-1.3,0.1c-0.3,0.1-0.5,0.2-0.5,0.6
		c-0.1,1.4-0.3,2.7-0.9,4c-0.1,0.3-0.1,0.4,0.2,0.3c1-0.3,2-0.6,2.9-1.2c1.3-0.8,2.1-2.2,3.1-3.3C52.5,23.1,51.3,22.9,50.1,22.8z"/>
	<path fill-rule="evenodd" clip-rule="evenodd" fill="#DCDC53" d="M50.5,30.7c0,0.3,0,0.6-0.1,0.9c-0.3,1-0.6,1.9-0.7,2.9
		c-0.2,1.7,0.4,3,1.7,3.6c0.9,0.4,1.8,0.4,2.8,0.3c0.1,0,0.1,0,0.2,0c0.1,0,0.1,0,0.2,0c0,0.1,0,0.1-0.1,0.2
		c-0.1,0.2-0.3,0.3-0.5,0.5c-0.1,0.1-0.2,0.1-0.1,0.3c0.2,0.8,0.4,1.7,0.8,2.5c0.4,0.7,0.7,0.8,1.3,0.2c0.3-0.3,0.4-0.6,0.6-0.9
		c0.2-0.5,0.4-0.9,0.7-1.3c0.3-0.4,0.7-0.6,1.1-0.8c-0.4-0.1-0.7-0.2-1.1-0.3c-1.1-0.3-2.1-1-2.7-2.1c-0.1-0.2-0.3-0.2-0.5-0.2
		c-0.1,0-0.2,0-0.3-0.1c0-0.1,0.1-0.2,0.2-0.2c0.4-0.3,0.9-0.4,1.4-0.4c0.8-0.1,1.6-0.2,2.4-0.6c1.3-0.6,2.1-1.7,2.7-3.1
		c0.3-0.7,0.5-1.4,0.7-2.3c-0.9,0.8-1.8,0.6-2.7,0.5c-0.6-0.1-1.2-0.2-1.8-0.2c-1.2,0-2.2,0.6-3.1,1.7c-0.2,0.3-0.4,0.6-0.7,0.9
		c-0.1,0.1-0.1,0.2-0.2,0.1c-0.1,0,0-0.2,0-0.2c0.1-0.8,0.1-1.7-0.1-2.5c-0.2-0.9-0.9-1.4-1.7-1.1c-0.2,0.1-0.3,0.2-0.5,0.3
		c-0.2,0.2-0.4,0.4-0.8,0.6C50.2,29.8,50.5,30.1,50.5,30.7z M46.4,29.9c0.3,1.1,0.4,2.3,1,3.2c0.4,0.7,0.9,1.2,1.4,1.7
		C49,35,49,34.9,49,34.7c0-1.1,0.3-2.1,0.6-3.1c0.1-0.3,0-0.4-0.2-0.6c-0.2-0.2-0.5-0.3-0.8-0.4C48,30.4,47.2,30.2,46.4,29.9z"/>
	<path fill-rule="evenodd" clip-rule="evenodd" fill="#6BB64C" d="M37.7,54.8c-0.4-0.1-0.8,0.3-1.1,0.6c-0.1,0.1-0.1,0.2-0.1,0.3
		c-0.3,0.8-0.9,1.2-1.7,1.4c-1.4,0.3-2.7-0.1-4-0.5c-0.8-0.2-1.3,0.1-1.4,0.9c-0.1,0.9-0.2,1.8-0.2,2.7c0,0.6-0.3,0.7-0.8,0.5
		c-0.7-0.2-1.3-0.4-2-0.7c-1.1-0.3-2,0.3-1.9,1.5c0,1,0,2.1-0.4,3.1c-0.4,1.1-1.1,2-2.4,2c-0.6,0-1,0.4-1.3,0.8
		c-0.3,0.3-0.2,0.5,0.2,0.6c0.8,0.1,1.7,0.2,2.5,0c1.9-0.3,3.1-1.4,3.7-3.3c0.1-0.3,0.2-0.6,0.2-1c0.1-0.4,0.2-0.5,0.6-0.2
		c0.4,0.3,0.7,0.8,0.8,1.5c0.1,1.5,0.2,3-0.2,4.5c-0.4,1.2-1.1,2.1-2.3,2.6c-1.4,0.6-2.7,0.4-4.1,0.1C21.4,72,21.1,72,21,72.4
		c-0.1,0.4,0.1,0.6,0.4,0.7c1,0.5,2.1,0.9,3.2,1c2,0.2,3.7-0.3,5.1-1.8c1.2-1.2,1.9-2.8,2.4-4.4c0.2-0.8,0.7-1,1.4-0.5
		c0.3,0.2,0.5,0.4,0.7,0.6c1.1,1.3,1.4,2.9,1.1,4.5c-0.3,1.3-0.8,2.5-1.3,3.7c-0.1,0.2-0.3,0.5,0,0.8c0.7,0.6,1.2,0.6,1.7-0.2
		c0.3-0.4,0.6-0.8,0.8-1.2c1.3-2.2,1.9-4.5,1.2-7c-0.5-2-1.7-3.7-3.3-4.9c-1-0.8-1.5-1.6-1.5-2.8c0-0.5,0.1-0.8,0.7-0.8
		c2.6-0.2,4-1.6,4.4-4.1C37.9,55.4,38.1,54.9,37.7,54.8z M26.3,58.4c1.3-0.3,2.1-1.5,1.8-2.8c-0.3-1.3-1.6-2.1-2.9-1.8
		c-1.2,0.3-2,1.5-1.8,2.8C23.7,57.9,25,58.7,26.3,58.4z"/>
	<path fill-rule="evenodd" clip-rule="evenodd" fill="#6BB64C" d="M37.6,51c-0.1-0.2-0.3-0.5-0.2-0.8c0.2-0.1,0.3-0.2,0.4-0.4
		c0-0.1,0-0.1,0-0.2c0-0.2-0.1-0.4-0.1-0.6c0-0.3-0.1-0.9,0.2-1.5c0.1-0.1,0.1-0.3,0-0.4c-0.8-1.4-1.2-3.2-0.9-5.1
		c0.3-2.6,1.7-5,3.5-6.2c0.2-0.1,0.3-0.2,0.5-0.3c-2.1-1-2.9-1-4.4-0.8c-1.2,0.2-2.4,0.9-3.2,2.1c-2.1,3.1-1.4,9.1,2.2,11.1
		c0.4,0.2,0.4,0.5,0.1,0.8c-0.3,0.4-0.2,0.7,0,1.2c0.5,1,1.2,2,1.2,3.2c0,0.4-0.1,0.9,0.5,0.9c0.2,0,0.4-0.1,0.4-0.2
		C37.8,53.6,38,51.6,37.6,51z M35.2,39.2c-0.1,0.2-0.1,0.4-0.2,0.6c-0.1,0.3-0.2,0.5-0.5,0.5c-0.3-0.1-0.4-0.3-0.4-0.6
		c-0.1-1.5,1.6-3.5,3.1-3.7c0.1,0,0.1,0,0.2,0c0.4,0.1,0.9-0.1,1,0.4c0.1,0.6-0.5,0.5-0.9,0.6C36.2,37.2,35.5,38,35.2,39.2z"/>
	<path fill-rule="evenodd" clip-rule="evenodd" fill="#6BB64C" d="M44.9,36.2c3.8,1,6.2,4.7,3.9,8.7c-1.3,2.1-3.1,3.6-5.3,3.9
		c-0.1,0-0.8,0.1-1.2-0.1c-0.7-0.5-1.1,1.1-2,1.2c-0.2,0.2-0.1,0.5-0.1,0.7c0,0.7-0.6,2.7-1,2.5c-0.5-0.2-0.2-0.6-0.1-0.9
		c0.4-1,0.2-2.1,0-3.1c0-0.5,0-0.8,0.4-1c0.4-0.2,0.5-0.4,0.2-0.7c-2.4-2.9-1-8.3,1.8-10.3C42.5,36.2,43.7,36,44.9,36.2z M44.8,37.6
		c-1.4-0.4-3.5,0.8-3.9,2.1c-0.1,0.2-0.1,0.5,0.1,0.6c0.3,0.2,0.5,0,0.6-0.2c0.1-0.2,0.2-0.3,0.4-0.5c0.7-0.9,1.6-1.3,2.7-1
		c0.3,0.1,0.8,0.3,1-0.2c0.1-0.5-0.4-0.5-0.7-0.7C44.9,37.6,44.8,37.6,44.8,37.6z"/>
	<path fill="none" d="M29.7,41.2c-0.1,0-0.1,0-0.1,0.1c-0.9,0.5-1.3,2.1-0.9,3c0.1,0.2,0.2,0.3,0.4,0.2c0.2-0.1,0.2-0.2,0.2-0.4
		c0-0.1,0-0.3-0.1-0.4c-0.1-0.8,0.1-1.4,0.8-1.9c0.2-0.1,0.6-0.2,0.4-0.6C30.2,40.9,29.9,41.1,29.7,41.2z"/>
	<path fill-rule="evenodd" clip-rule="evenodd" fill="#6BB64C" d="M31.6,44c-0.3-1.3-0.4-2.6-0.3-3.9c-0.8,0-1.6,0.3-2.4,0.8
		c-0.7,0.5-1.1,1.2-1.3,2.2c-0.3,2.4,1.8,5.7,4.4,5.8c0.3,0,0.4,0.1,0.3,0.4c-0.1,0.3,0.1,0.5,0.3,0.7c0.6,0.4,1.3,0.8,1.6,1.5
		c0.1,0.2,0.2,0.5,0.5,0.4c0.3-0.1,0.2-0.4,0.1-0.7c-0.2-0.5-0.5-0.8-0.9-1.1c-0.1-0.1-0.3-0.2-0.3-0.4c0-0.3,0-0.6,0.1-0.8
		c0-0.1,0.1-0.3,0.1-0.4c0.1-0.2,0.2-0.3,0-0.5C32.9,46.9,32,45.6,31.6,44C31.6,44.1,31.6,44.1,31.6,44z M30,42.2
		c-0.8,0.6-0.9,1.4-0.7,2.2c0,0.2,0.1,0.3,0.1,0.5c0.1,0.2,0.1,0.4-0.2,0.5c-0.2,0.1-0.3,0-0.5-0.2c-0.6-0.9-0.3-2.8,0.6-3.5
		c0,0,0.1-0.1,0.1-0.1c0.3-0.1,0.5-0.5,0.8-0.1C30.6,41.8,30.2,42,30,42.2z"/>
	<path fill-rule="evenodd" clip-rule="evenodd" fill="#6BB64C" d="M29.9,50.7c-0.1,0-0.1,0.1-0.2,0.2c-0.4,0.3-0.6,0.6-0.4,1.1
		c0.1,0.3,0.2,0.6-0.1,0.8c-0.3,0.2-0.6,0-0.8-0.2c-0.4-0.4-0.8-0.4-1.3,0c-0.2,0.2-0.4,0.2-0.7,0.1c-0.2-0.2-0.2-0.5-0.1-0.7
		c0.2-0.6,0.2-1.1-0.4-1.4c-0.2-0.1-0.4-0.4-0.3-0.6c0.1-0.3,0.4-0.3,0.6-0.3c0.6,0.1,1-0.1,1.1-0.7c0.1-0.2,0.2-0.5,0.5-0.5
		c0.3,0,0.4,0.2,0.4,0.4c0.2,0.7,0.5,1,1.2,1C30.1,49.8,30.2,50.3,29.9,50.7z"/>
	<g>
		<path fill-rule="evenodd" clip-rule="evenodd" fill="#85CAC4" d="M26,12.3c1,1.3,2.2,0.9,3.5,0.2c0.9-0.5,1.6,0.2,1.2,1.2
			c-0.5,1.2-0.2,2,0.8,2.7c0.5,0.3,0.9,0.8,0.6,1.5c-0.3,0.6-0.9,0.5-1.4,0.5c-1.1-0.1-1.9,0.2-2.2,1.4c-0.1,0.5-0.5,1-1.1,1
			c-0.6,0-0.9-0.5-1-1.1c-0.2-1.3-1-1.8-2.3-1.7c-0.6,0-1.2-0.2-1.4-0.8c-0.1-0.7,0.4-1,0.9-1.2c1.1-0.5,1.2-1.3,0.8-2.3
			c-0.2-0.5-0.2-1.1,0.3-1.5C25.2,11.9,25.5,12,26,12.3z"/>
		<path fill-rule="evenodd" clip-rule="evenodd" fill="#85CAC4" d="M15.8,33.5c-0.1,0.1-0.2,0.3-0.3,0.5c-0.7,0.8-0.7,1.5,0,2.4
			c0.4,0.4,0.7,1,0.3,1.6c-0.4,0.6-1.1,0.4-1.6,0.1c-1.1-0.5-1.9-0.3-2.5,0.7c-0.2,0.4-0.7,0.7-1.2,0.6c-0.6-0.2-0.7-0.7-0.6-1.2
			c0.1-1.3-0.4-2.1-1.7-2.5c-0.5-0.1-0.9-0.4-0.9-1c0-0.6,0.5-0.8,1-0.9c1.2-0.2,1.8-0.8,1.7-2.1c0-0.5,0.1-1,0.7-1.2
			c0.5-0.2,0.9,0.2,1.1,0.5c0.7,1.2,1.6,1.6,3,1.1C15.6,31.8,16.1,32.5,15.8,33.5z"/>
		<path fill-rule="evenodd" clip-rule="evenodd" fill="#85CAC4" d="M32.5,31.4c-0.1,0.1-0.2,0.2-0.3,0.2c-0.6,0.4-0.8,0.8-0.5,1.5
			c0.1,0.4,0.3,0.8-0.1,1.1c-0.4,0.3-0.8,0-1-0.2c-0.6-0.5-1.1-0.6-1.7-0.1c-0.2,0.2-0.6,0.3-0.9,0.1c-0.3-0.2-0.3-0.6-0.1-0.9
			c0.3-0.8,0.2-1.4-0.5-1.9c-0.3-0.2-0.5-0.5-0.4-0.8c0.1-0.4,0.5-0.4,0.8-0.4c0.8,0.1,1.3-0.1,1.5-1c0.1-0.3,0.3-0.6,0.7-0.6
			c0.4,0,0.5,0.3,0.6,0.6c0.2,0.9,0.7,1.4,1.7,1.4C32.8,30.3,32.9,30.9,32.5,31.4z"/>
		<path fill-rule="evenodd" clip-rule="evenodd" fill="#85CAC4" d="M11,12.5c0.8,0.8,1.9,0.9,3.2,0.4c0.8-0.3,1.4,0.3,1.1,1.1
			c-0.4,1.1-0.2,2,0.6,2.9c0.7,0.7,0.3,1.5-0.7,1.5c-1.2-0.1-1.9,0.3-2.5,1.3c-0.5,0.8-1.4,0.7-1.7-0.3c-0.4-1.2-1-1.7-2.2-2
			c-1.1-0.3-1.1-1-0.2-1.7c0.8-0.6,1.2-1.3,1-2.4C9.4,12.5,10,12.1,11,12.5z"/>
		<path fill-rule="evenodd" clip-rule="evenodd" fill="#85CAC4" d="M13.9,24.6C13.9,24.6,13.9,24.6,13.9,24.6
			c-0.2-0.2-0.6-0.2-0.8-0.3c-1.2-0.2-2.4-0.5-3.5-0.8c-1.6-0.4-3.4-0.8-5-0.7c-0.5,0-1.3,0.1-1.7,0.5c0,0.1-1.6,2.8-0.9,3.4
			c0.6,0.6,1.7-0.1,2.5-0.2c2.6-0.4,5.1-0.8,7.7-1.2c0.4-0.1,0.7-0.1,1.1-0.2c0.2,0,0.5,0,0.7-0.1C13.9,25,14,24.8,13.9,24.6z"/>
		<path fill-rule="evenodd" clip-rule="evenodd" fill="#85CAC4" d="M18.7,27c0.2,0.2,0.3,0.5,0.3,0.7c0.1,0.4,0.3,0.9,0.5,1.3
			c0.9,2.2,1.9,4.3,2.9,6.5c0.4,0.8,0.4,1.3-0.4,1.8c-0.8,0.6-1.6,1.9-2.4,1.6c-0.9-0.3-0.5-1.8-0.6-2.8c-0.3-2.6-0.4-5.3-0.7-7.9
			c0-0.3-0.2-0.8,0-1.1C18.4,26.8,18.6,26.8,18.7,27z"/>
		<path fill-rule="evenodd" clip-rule="evenodd" fill="#85CAC4" d="M21.9,24.9C21.9,24.9,21.9,24.8,21.9,24.9c0.2-0.4,1-0.6,1.4-0.7
			c0.6-0.1,1.2-0.3,1.8-0.4c1.2-0.3,2.3-0.6,3.5-0.9c0.6-0.2,1.3-0.3,1.9-0.5c1-0.2,1.4,0.6,1.9,1.2c0.5,0.5,1.6,1,1.2,1.7
			c-0.3,0.6-1.4,0.2-2.1,0.2c-2.4-0.1-4.8-0.2-7.1-0.3c-0.6,0-1.1,0-1.7,0C22.5,25.2,21.8,25.2,21.9,24.9z"/>
		<path fill-rule="evenodd" clip-rule="evenodd" fill="#85CAC4" d="M20.4,27.7c0.2,0.1,0.3,0.3,0.4,0.4c0.3,0.3,0.6,0.6,0.9,0.8
			c0.6,0.6,1.2,1.1,1.8,1.7c1.2,1.1,2.4,2.2,3.5,3.3c0.7,0.6,1.3,1.3,2,1.9c0.4,0.4,0.2,0.7-0.3,0.8c-2.1,0.6-2.9,0.3-4.1-1.5
			c-1.2-1.9-2.4-3.8-3.6-5.7c-0.2-0.4-0.5-0.7-0.7-1.1c-0.1-0.1-0.2-0.5-0.1-0.6C20.3,27.7,20.4,27.7,20.4,27.7z"/>
		<path fill-rule="evenodd" clip-rule="evenodd" fill="#85CAC4" d="M19.8,25.8c0.1-0.1,0.2-0.1,0.4-0.1c0.3,0,0.7,0.1,1,0.2
			c0.5,0.1,1,0.2,1.6,0.4c1,0.2,2.1,0.5,3.1,0.7c0.6,0.1,1.2,0.3,1.8,0.4c0.7,0.2,0.9,0.9-0.1,1.4c-0.2,0.1-3.2,0.5-3.4,0.4
			c-0.8-0.6-1.7-1.2-2.5-1.8c-0.3-0.2-0.6-0.5-1-0.7c-0.3-0.2-0.6-0.3-0.8-0.5C19.7,26,19.7,25.8,19.8,25.8z"/>
		<path fill-rule="evenodd" clip-rule="evenodd" fill="#85CAC4" d="M15.7,25.8c0.2,0.3-3.1,1.6-3.3,1.7c-0.6,0.3-1.1,0.6-1.7,0.8
			c-0.6,0.3-1.2,0.5-1.8,0.8c-0.4,0.2-0.8,0.5-1.2,0.2c-0.7-0.4-1.6-0.8-1.6-1.6c0-0.6,1-0.5,1.6-0.6c2.2-0.5,4.4-0.7,6.5-1.4
			C14.7,25.6,15.4,25.3,15.7,25.8z"/>
		<path fill-rule="evenodd" clip-rule="evenodd" fill="#85CAC4" d="M22.4,15.8c-0.5,1.1-1,2.2-1.4,3.3c-0.3,0.6-0.5,1.3-0.7,1.9
			c-0.1,0.2-0.5,1.5-0.8,1.2c-0.1-0.1,0-0.4,0-0.6c0.1-0.4,0.1-0.7,0.2-1.1c0.1-0.7,0.3-1.5,0.4-2.2c0.3-1.5,0.6-2.9,0.9-4.4
			C21,13.7,23.2,14.1,22.4,15.8z"/>
		<path fill-rule="evenodd" clip-rule="evenodd" fill="#85CAC4" d="M18.3,23c-0.5,0.2-0.6-1.2-0.6-1.5c-0.3-1.8-0.6-5.3-0.8-7.1
			c-0.2-1.4,0.9-1.1,1.6-1.2c0.9-0.1,0.8,0.5,0.7,1.1c-0.1,1.2-0.3,4-0.4,5.2c-0.1,0.6,0,1.3,0,1.9C18.7,21.8,18.8,22.8,18.3,23z"/>
		<path fill-rule="evenodd" clip-rule="evenodd" fill="#85CAC4" d="M14.7,23.9c0,0.2-0.4,0.3-0.6,0.2c-2.3-0.7-4.7-1.4-7-2.1
			c-0.3-0.1-0.7-0.1-0.7-0.5c0-0.4,0.4-0.4,0.7-0.5c1.1-0.6,2.2-0.7,3.3,0.1c0.7,0.5,1.5,1,2.2,1.5c0.5,0.3,1,0.5,1.4,0.8
			c0.2,0.1,0.5,0.2,0.6,0.4C14.7,23.8,14.7,23.8,14.7,23.9z"/>
		<path fill-rule="evenodd" clip-rule="evenodd" fill="#85CAC4" d="M19.1,24.5c0-0.1,1.7-1.8,1.9-2c0.7-0.7,1.4-1.4,2.1-2.1
			c0.6-0.5,1.4-0.2,1.8,0.5c0.3,0.6,0.4,1.2-0.5,1.6c-1,0.4-2,0.9-3,1.4c-0.5,0.2-1,0.5-1.5,0.7C19.5,24.7,19.3,24.9,19.1,24.5z"/>
		<path fill-rule="evenodd" clip-rule="evenodd" fill="#85CAC4" d="M17,26.6c0,0.1,0,0.3-0.1,0.5c-0.1,0.4-0.3,0.7-0.4,1.1
			c-0.3,0.8-0.5,1.5-0.8,2.2c-0.3,0.7-0.9,0.7-1.5,0.7c-0.6,0-0.9-0.5-1.1-1c-0.3-0.6,0.3-0.9,0.6-1.2c0.6-0.5,1.2-1,1.7-1.5
			c0.4-0.3,0.7-0.6,1.1-0.8C16.8,26.5,16.9,26.5,17,26.6z"/>
		<path fill-rule="evenodd" clip-rule="evenodd" fill="#85CAC4" d="M16.9,24.4c-0.2,0-0.4-0.3-0.5-0.5c-0.3-0.3-0.6-0.6-0.9-0.9
			c-0.6-0.6-1.1-1.2-1.6-1.8c-0.5-0.6,0-1.4,0.6-1.8c0.6-0.4,1.1,0.1,1.3,0.7c0.3,0.8,0.6,1.6,0.9,2.4c0.1,0.3,0.8,1.7,0.3,1.8
			C17,24.4,16.9,24.4,16.9,24.4z"/>
	</g>
	<path fill-rule="evenodd" clip-rule="evenodd" fill="#6C86C3" d="M15.9,51.3c-0.9-0.3-1-0.6-1.9-0.9c-0.7-0.2-0.9-0.5-0.9-1.2
		c0-0.9,0.1-1.8,0.1-2.7c0-0.3-0.1-0.5-0.3-0.8c-1.1-1.5-0.6-3.3,1.2-3.9c0.3-0.1,0.4-0.2,0.6-0.4c1.1-1.5,3.1-2,4.8-1.1
		c0.5,0.2,0.8,0.4,1.3,0c0.3-0.3,0.7-0.3,1.1-0.2c0.5,0.2,1,0.1,1.5-0.1c1-0.4,1.9-0.2,2.8,0.2c0.3,0.1,0.5,0.3,0.4,0.6
		c-0.1,0.3-0.4,0.3-0.7,0.2c-0.3-0.1-0.6-0.2-1-0.3c-0.5-0.2-1,0.1-1.5,0.2c-0.1,0-0.1,0.1-0.1,0.2c0,0.1,0.1,0.2,0.1,0.2
		c-0.1,0.9,0.2,1.8,0.7,2.6c0.1,0.2,0.1,0.4,0.1,0.6c0,0.5,0.2,0.9,0.4,1.3c0.7,1.2,0,2.8-1.4,3.1c-0.4,0.1-0.6,0.3-0.8,0.6
		c-0.4,0.7-1.4,1.6-2.1,2.4c-0.4,0.7-0.8,0.6-1.6,0.3C17.9,51.9,16.9,51.6,15.9,51.3z M18.8,40.9c-1.4-0.4-2.7,0-3.3,1.2
		c-0.2,0.4-0.4,0.6-0.9,0.6c-0.6,0.1-1,0.4-1.2,1c-0.1,0.6,0,1.1,0.4,1.5c0.5,0.4,1,0.4,1.5,0.1c0.4-0.2,0.7-0.2,0.9,0.3
		c0.3,0.7,0.9,0.9,1.6,0.6c0.7-0.2,0.8-0.2,0.9,0.6c0.1,0.5,0.4,0.9,0.8,1c0.5,0.2,0.9,0,1.2-0.3c0.6-0.5,0.6-0.5,1.1,0.1
		c0.4,0.4,0.9,0.6,1.4,0.3c0.5-0.2,0.9-0.9,0.6-1.3c-0.6-0.8-0.6-1.7-0.8-2.5c0-0.1,0-0.1-0.1-0.2c-0.2-0.4-0.3-0.5-0.8-0.3
		c-1.1,0.5-2.4-0.2-2.4-1.4C19.9,41.3,19.4,41.1,18.8,40.9z M14.9,49.5c0.1-0.7,0.1-1.5,0.2-2.2c0-0.2-0.1-0.4-0.3-0.4
		c-0.2,0-0.3,0-0.3,0.2c-0.1,0.9-0.2,1.7-0.2,2.6c0,0.2,0.2,0.3,0.3,0.3C14.8,49.8,14.9,49.7,14.9,49.5z M16.4,47.9
		c-0.2,0.7-0.3,1.3-0.4,1.9c-0.1,0.2,0,0.5,0.3,0.6c0.2,0,0.3,0,0.4-0.2c0.2-0.8,0.3-1.5,0.5-2.3c0-0.2-0.1-0.3-0.3-0.4
		c-0.2,0-0.3,0.1-0.3,0.2C16.4,47.8,16.4,47.9,16.4,47.9z M18.8,49.5c0.1-0.3,0.1-0.4,0.2-0.6c0.1-0.2,0-0.4-0.2-0.4
		c-0.2-0.1-0.4,0-0.5,0.2c-0.2,0.6-0.4,1.2-0.7,1.7c-0.1,0.2,0,0.4,0.2,0.4c0.2,0.1,0.4,0,0.5-0.2C18.5,50.2,18.6,49.8,18.8,49.5z"
		/>
	<path fill-rule="evenodd" clip-rule="evenodd" fill="#5DB241" d="M73.4,23.4c-0.1,0.4,0.1,0.6,0.3,0.9c0.4,0.5,0.2,0.8-0.3,0.8
		c-0.5,0-0.7,0.2-0.9,0.6c-0.3,0.4-0.6,0.4-0.8,0c-0.2-0.4-0.5-0.6-1-0.7c-0.5-0.1-0.6-0.5-0.2-0.8c0.3-0.3,0.4-0.6,0.4-1
		c-0.1-0.5,0.2-0.7,0.7-0.5c0.3,0.2,0.6,0.2,1,0.1C73.4,22.5,73.5,22.6,73.4,23.4z"/>
	<path fill-rule="evenodd" clip-rule="evenodd" fill="#5DB241" d="M59.7,10.3c-0.3-0.5-0.8-0.5-1.3-0.3c-0.6,0.2-0.8-0.2-0.6-0.6
		c0.3-0.6,0.2-1-0.2-1.5c-0.3-0.4-0.1-0.8,0.4-0.8c0.6,0.1,0.9-0.2,1.2-0.6C59.6,6,60,6.1,60.1,6.7c0.1,0.5,0.4,0.8,0.9,0.9
		c0.6,0.2,0.7,0.6,0.2,0.9c-0.5,0.3-0.7,0.7-0.7,1.4C60.5,10.5,60.2,10.6,59.7,10.3z"/>
	<path fill-rule="evenodd" clip-rule="evenodd" fill="#6BB64C" d="M32.6,55.1c-0.2-0.4-0.6-0.4-1-0.2c-0.4,0.2-0.6-0.1-0.4-0.5
		c0.2-0.4,0.1-0.8-0.1-1.1c-0.2-0.3-0.1-0.6,0.3-0.6c0.4,0,0.7-0.1,0.9-0.5c0.3-0.4,0.6-0.3,0.7,0.1c0.1,0.4,0.3,0.6,0.7,0.7
		c0.4,0.1,0.5,0.4,0.1,0.7c-0.4,0.3-0.5,0.5-0.5,1C33.2,55.2,33,55.3,32.6,55.1z"/>
	<path fill-rule="evenodd" clip-rule="evenodd" fill="#6C86C3" d="M11.2,51.5c-0.4,0.6-0.9,0.9-1.5,1.1c-2,0.4-3.1,0.8-5.1,1.2
		c-1,0.2-1.8,0-2.4-1.8C1,48.7-0.1,45.8,1.3,41c0.4-1.5,0.4-3,0.2-4.5c-0.1-0.6,0.1-0.9,0.7-1.1c2.3-0.6,2.3-0.6,3,1.6
		c0.4,1.3,1.1,2.5,2.1,3.4c1.6,1.6,2.6,3.5,3,5.8C10.6,47.6,11.3,51.2,11.2,51.5z M9.2,51.9c1-0.5,1.3-1,1.1-1.7
		c-0.5-1.9-1-3.8-1.5-5.7c-0.2-0.6-0.5-1-1.2-0.8c-0.5,0.1-0.9-0.1-1.2-0.5c-1.2-1.4-2.5-1.2-3.1,0.5c-0.2,0.6-0.6,1-1.3,1.2
		c-0.8,0.2-0.5,0.9-0.5,1.4c0.1,0.6,0.5,0.7,1,0.5c0.6-0.2,1,0,1.5,0.5c1.1,1.3,2.4,1,3-0.5c0.1-0.2,0.1-0.4,0.2-0.6
		c0.1-0.5,0.6-0.5,1-0.5c0.5,0,0.5,0.3,0.6,0.7c0.2,1,0.4,2.1,0.6,3.1C9.6,50.3,9.7,51.1,9.2,51.9z"/>
	<path fill-rule="evenodd" clip-rule="evenodd" fill="#6C86C3" d="M4.1,30.8c0.3,0.2,0.4,0.4,0.4,0.6c0.1,0.6,0.2,1.3,0.3,1.9
		c0.1,0.6-0.1,1-0.8,1.1c-0.7,0.1-1.4,0.3-2.1,0.5c-0.8,0.2-1.3-0.1-1.5-0.9c-0.8-2.5-0.8-2.5,1.8-3.1c0.5-0.1,1.1-0.2,1.6-0.3
		C3.9,30.7,4,30.8,4.1,30.8z"/>
	<path fill-rule="evenodd" clip-rule="evenodd" fill="#EA4E5D" d="M57.4,62.7c0.9,0.1,1.8,0,2.6-0.6c1-0.7,1.9-1.6,3.1-1.8
		c0.4-0.1,0.7-0.2,1.1-0.4c1-0.4,1.5-1.1,1.3-2.2c0-0.3,0-0.5,0.1-0.7c0.5-0.8,0.4-1.5-0.3-2.2c-1.7-1.5-3.7-2.4-6-2.3
		c-1.7,0-2.7,0.9-2.9,2.7c-0.2,1.9-0.3,3.7-0.3,5.6C56.1,61.9,56.6,62.7,57.4,62.7z M59,53.9c1.5-0.5,3.7,0.1,4.7,1.3
		c0.1,0.2,0.3,0.3,0.1,0.5c-0.2,0.2-0.4,0-0.6-0.1c-0.7-0.6-1.5-0.9-2.4-0.9c-0.7-0.1-1.3,0.2-1.8,0.5c-0.7,0.4-0.7,0.9-0.2,1.9
		c0.4,0.7,1.7,1.4,2.4,1.2c0.4-0.1,0.9-0.1,0.9-0.7c0-0.6-0.4-0.9-0.9-1c-0.3-0.1-0.6-0.1-0.9-0.1c-0.2,0-0.4-0.1-0.4-0.3
		c0-0.2,0.2-0.4,0.4-0.4c0.3,0,0.6,0,0.9,0c0.8,0.2,1.6,0.5,2.2,1.1c0.8,0.8,0.7,1.8-0.4,2.1c-2.1,0.6-4.1,0.4-5.5-1.7
		C56.9,56.1,57.6,54.4,59,53.9z M60.6,65.5c-0.4-0.4-1-0.8-1.5-1.2c-1.1-0.8-2.5-0.8-3.3,0c-0.7,0.8-1.6,1.2-2.7,1.2
		c-0.4,0-0.9,0-1.3,0c-0.7,0-1.2,0.1-1.4,0.9c-0.1,0.2-0.2,0.4-0.2,0.7c-0.3,1-0.7,1.9-1.2,2.8c-0.5,1-1.2,2-1.7,3
		c-0.3,0.7-0.7,2.2-0.2,2.6c0.5,0.4,4.6-0.7,7.8-2.2c1.1-0.5,1.6-1.3,1.5-1.7c-0.2-0.9-0.5-2.5-0.5-3.5c0-0.5,0.2-0.6,0.6-0.4
		c0.3,0.2,0.5,0.3,0.8,0.5c0.7,0.4,2.6,0.8,3.5,0.7c1.6-0.2,2.7-1.4,3.9-2.5c-0.7-0.1-1.4-0.1-1.7-0.1C62,66.5,61.2,66.2,60.6,65.5z
		 M50.3,51.7c0.5,0,1.1-0.3,1.6,0c0.6,0.3,1.2,0.5,1.9,0.7c2.3,0.6,4.5,0,6.1-1.7c0.9-1,0.6-2.7-0.6-3c-1.5-0.5-3.1-0.6-4.7-0.1
		c-0.7,0.1-1.2,0.6-1.5,1.2c-0.2,0.4-0.4,0.8-0.1,1.2c0.6,0.9,2.8,1.2,3.7,0.5c0.2-0.2,0.5-0.5,0.3-0.8c-0.1-0.4-0.4-0.5-0.7-0.5
		c-0.5-0.1-1.1,0-1.5,0.3c-0.1,0.1-0.3,0.2-0.4,0c-0.1-0.2,0-0.3,0.1-0.4c0.1-0.1,0.2-0.1,0.3-0.2c1.2-0.4,2.4-0.5,3.6-0.1
		c0.8,0.2,0.9,0.8,0.3,1.4c-0.6,0.6-1.4,0.9-2.3,1.1c-1.6,0.3-2.9-0.1-4.2-1.1c-0.2-0.2-0.4-0.4-0.6-0.7c-0.4-0.8,0.1-1.6,1.2-2.1
		c1.8-0.8,3.6-0.9,5.5-0.5c0.3,0.1,0.7,0.3,0.9-0.1c0.3-0.3,0.2-0.8,0.1-1.1c-0.4-0.8-1-1.3-1.9-1.5c-1.2-0.3-2.4-0.2-3.5,0.4
		c-0.9,0.4-1.7,1.2-2.8,1.1c-0.9-0.1-1.4,0.4-1.9,1c-0.5,0.5-0.4,1.6,0.1,2.1c0.1,0.1,0.2,0.2,0.2,0.3c0,0.1-0.2,0.1-0.3,0.1
		c-0.5-0.1-0.9,0.2-1.1,0.7c-0.2,0.6,0,1,0.4,1.5C49,51.8,49.6,51.7,50.3,51.7z M69.3,55.2c-0.5-0.7-1.1-1.3-2-1.3
		c-0.3,0-0.6-0.2-0.8,0.1c-0.2,0.3,0,0.6,0.2,0.9c0.5,0.7,0.4,1.3,0,2c-0.3,0.6-0.4,1.1-0.3,1.8c0.2,0.9-0.1,1.3-0.8,1.8
		c-1.1,0.7-2.2,1.1-3.4,1.5c-0.6,0.2-1.2,0.6-1.6,1.2c0.3,0.2,0.5,0.1,0.7,0.1c1,0.1,2,0.4,3,0.8c0.7,0.3,1.4,0.6,2.1,0.1
		c0.6-0.4,0.6-0.8,0.2-1.8c-0.2-0.7-0.2-0.6,0.4-0.6c0.8,0,1.5-0.1,2.2-0.7c1.2-1,1.1-2.4-0.3-3.1c-0.7-0.4-0.7-0.4-0.2-0.9
		c0.1-0.1,0.3-0.3,0.4-0.4C69.4,56.1,69.6,55.6,69.3,55.2z M61,51c-0.3,0.3-0.2,0.5,0.2,0.6c1.1,0.3,2.2,0.5,3.2,1
		c0.3,0.2,0.6,0.5,1,0.1c0.4-0.3,0.6-0.8,0.5-1.3c-0.1-0.7-0.5-1.1-1.1-1.4c-0.4-0.1-1,0.2-1.1-0.3c-0.1-0.4,0.3-0.8,0.4-1.2
		c0.2-0.9,0.3-1.8-0.4-2.5c-0.7-0.6-1.6-0.6-2.4-0.5c-0.9,0.3-1.1,0.9-0.7,1.8c0.1,0.2,0.3,0.4,0.4,0.6C61.5,49,61.7,50.1,61,51z
		 M42.7,58.3c0.1,0.1,0.4,0,0.4,0.2c0,0.2-0.1,0.2-0.3,0.3c-0.4,0.3-0.5,0.7-0.3,1.1c0.4,0.9,1.2,1.6,2,2.1c0.1,0.1,0.2,0.1,0.3,0.1
		c0.1-0.1,0.1-0.2,0.1-0.3c-0.2-0.7,0.1-1.4,0.3-2c0.2-0.7,0.5-1.4,0.1-2.1c-0.1-0.4-0.5-0.7-0.7-1.1c-0.5-1-1.8-1.4-2.8-0.9
		c-0.5,0.2-0.7,0.5-0.7,1c0,0.5,0.1,0.9,0.6,1.1C42,58.1,42.3,58.2,42.7,58.3z M53.1,60c-0.6,0.2-0.7,0.5-0.5,1.1
		c0.4,1.1,0.1,2-0.9,2.6c-0.2,0.2-0.4,0.3-0.7,0.7c0.5,0,0.8,0.1,1.2,0.1c1.9,0,3.3-1.5,3-3.3c-0.2-0.9-0.2-1.8,0.1-2.8
		C54.6,59.2,54,59.7,53.1,60z M45.9,57.4c0.3,1,0.3,2.1-0.2,3.1c-1,2,1,3.6,2.6,3.8c1.4,0.1,2.5-0.7,3.2-1.9
		c0.5-0.9,0.4-1.3-0.3-2.1c-0.1-0.1-0.3-0.2-0.2-0.4c0.1-0.2,0.3-0.3,0.5-0.3c0.5,0,0.9-0.1,1.3-0.3c0.2-0.1,0.4-0.1,0.5-0.2
		c1.4-0.7,2.6-1.7,2.4-3.4c-0.1-0.7-0.5-1.1-0.7-1.6c-0.4-0.7-0.9-1-1.7-1.2c-1.3-0.3-2.6-0.2-3.9-0.2c-0.4,0-0.7-0.1-0.9-0.3
		c-0.4-0.4-0.8-0.9-1.3-1.3c-0.6-0.5-1-0.4-1.2,0.4c-0.2,0.7-0.2,0.7-0.8,0.3c-0.2-0.1-0.4-0.2-0.6-0.3c-0.9-0.3-2,0.5-1.8,1.4
		c0.3,1.2,0.8,2.2,1.8,2.9C45.2,56,45.7,56.7,45.9,57.4z M46.7,55.2c0.5-1,1.8-1.5,2.8-1.1c0.1,0,0.2,0.1,0.2,0.2
		c0,0.2-0.1,0.2-0.2,0.3c-0.3,0.2-0.7,0.3-1,0.6c-1,0.7-0.9,1.8,0.1,2.4c0.9,0.4,1.8,0.5,2.8,0.2c0.3-0.1,0.6-0.3,0.6-0.7
		c0-0.4-0.3-0.6-0.7-0.8c-0.5-0.2-1-0.1-1.4,0.1c-0.2,0.1-0.4,0.2-0.6,0c-0.1-0.2,0.1-0.3,0.3-0.5c0.9-0.9,2-1.3,3.3-1.2
		c0.6,0,1.1,0.4,1.3,0.9c0.2,0.5,0,1.1-0.4,1.5c-0.5,0.5-0.9,1-1.5,1c-2.2,0.8-4.3,0.2-5.7-1.6C46.5,56,46.5,55.6,46.7,55.2z"/>
	<g>
		<path fill-rule="evenodd" clip-rule="evenodd" fill="#E44729" d="M38.4,60.1c0.7,0.9,1.5,0.6,2.4,0.2c0.6-0.3,1.1,0.1,0.8,0.8
			c-0.3,0.8-0.2,1.4,0.5,1.9c0.3,0.2,0.6,0.6,0.4,1c-0.2,0.4-0.6,0.4-1,0.3c-0.8-0.1-1.3,0.2-1.5,1c-0.1,0.3-0.3,0.7-0.8,0.7
			c-0.4,0-0.6-0.4-0.7-0.7C38.5,64.3,38,64,37.1,64c-0.4,0-0.8-0.1-0.9-0.6c-0.1-0.4,0.3-0.7,0.6-0.8c0.7-0.3,0.8-0.9,0.6-1.6
			c-0.1-0.4-0.1-0.7,0.2-1C37.8,59.9,38,60,38.4,60.1z"/>
		<path fill-rule="evenodd" clip-rule="evenodd" fill="#E44729" d="M41.4,67.8c0.8,0.1,1.6,0.2,2.3,0.3c0.2,0,0.4,0,0.5-0.2
			c0.4-0.5,0.9-0.9,1.3-1.4c0.2-0.2,0.4-0.3,0.7-0.3c0.6,0.1,1.1,0.1,1.7,0.2c0.3,0,0.4,0.2,0.3,0.4c-0.1,0.7-0.1,0.7-0.7,0.7
			c-0.1,0-0.3,0-0.4-0.1c-0.6-0.2-1.1,0-1.5,0.6c-0.1,0.1-0.2,0.1-0.1,0.3c0,0.1,0.2,0.1,0.3,0.1c0.3,0,0.7,0.1,1,0.1
			c0.1,0,0.3,0,0.4,0.2c0.1,0.2-0.1,0.3-0.2,0.4c-1.3,1.5-2.6,2.9-4,4.4c-0.2,0.2-0.3,0.4-0.3,0.7c-0.1,0.5-0.2,1-0.3,1.5
			c-0.1,0.3,0,0.3,0.3,0.4c0.5,0.1,0.9,0.2,1.3,0.4c0.2,0.1,0.5,0.2,0.4,0.4C44.3,77,44,76.9,43.8,77c-0.5,0-0.9,0-1.4-0.1
			c-0.9-0.1-1.7-0.1-2.6-0.4c-0.2,0-0.5,0-0.5-0.3c0-0.3,0.3-0.3,0.5-0.4c0.5-0.1,0.9-0.2,1.4-0.1c0.2,0,0.3-0.1,0.3-0.3
			c0-0.6,0.1-1.1,0.1-1.7c0-0.2-0.1-0.4-0.2-0.6c-0.9-1.7-1.9-3.3-2.8-5c-0.1-0.2-0.3-0.3-0.1-0.5c0.1-0.2,0.3-0.1,0.5-0.1
			C39.8,67.6,40.6,67.7,41.4,67.8z M41.1,69.6c0.1-0.1,0.3-0.1,0.4-0.1c1,0.1,2,0.2,3,0.3c0.4,0,0.6,0,0.8-0.3
			c0.1-0.1,0.2-0.1,0.1-0.2c0-0.1-0.2-0.1-0.3-0.1c-0.8-0.1-1.7-0.2-2.5-0.3c-0.7-0.1-1.4-0.2-2.1-0.2c-0.2,0-0.6-0.2-0.7,0
			c-0.1,0.2,0.2,0.5,0.3,0.7"/>
	</g>
	<g>
		<path fill-rule="evenodd" clip-rule="evenodd" fill="#268DBB" d="M42.5,15.3c-2.5-1.1-4.9-2.1-7.4-3.2c-0.9-0.4-1.1-0.8-0.7-1.7
			c1.1-2.7,2.3-5.3,3.4-8c0.1-0.2,0.1-0.5,0.3-0.5c0.3,0,0.3,0.3,0.4,0.5c1.5,2.8,2.9,5.7,4.4,8.5c0.6,1.2,1.2,1.5,2.5,1.1
			c3.1-0.9,6.2-1.8,9.3-2.7c0.2-0.1,0.4-0.3,0.6,0c0.1,0.2-0.1,0.4-0.1,0.6c-1.1,2.7-2.3,5.4-3.5,8c-0.4,0.9-0.8,1.1-1.7,0.7
			C47.5,17.5,45,16.4,42.5,15.3C42.5,15.3,42.5,15.3,42.5,15.3z"/>
		<path fill-rule="evenodd" clip-rule="evenodd" fill="#268DBB" d="M49.4,7.8c-0.3,0.6-0.8,1-1.3,1.3c-0.7,0.4-1.5,0.7-2.2,1.1
			c-0.3,0.1-0.5,0.1-0.6-0.1c-0.4-0.8-1-1.3-1.5-2.1c-0.4-0.7-0.6-1.4-0.4-2.2c0.2-0.8,0.7-1.2,1.4-1.4c0.7-0.2,1.3,0,1.8,0.6
			c0.2,0.2,0.3,0.4,0.6,0.2c0.8-0.4,1.5-0.2,2,0.4C49.7,6.2,49.7,7,49.4,7.8z"/>
		<path fill-rule="evenodd" clip-rule="evenodd" fill="#268DBB" d="M54.5,3.7C55,4,55.3,4.5,55.2,5.1c-0.3,1.1-0.6,2.3-0.9,3.4
			c0,0.2-0.1,0.3-0.3,0.4c-0.2,0.1-0.4,0.2-0.6,0.1c-0.2-0.1,0-0.4,0-0.6c0.3-1,0.6-2,0.8-3c0.1-0.4,0.1-0.7-0.4-0.9
			c-4-1.1-7.9-2.2-12.5-3.5c-0.5-0.1-0.7,0-0.9,0.5c-0.1,0.5-0.3,1-0.4,1.6c0,0.1,0,0.2-0.2,0.2c-0.1,0-0.2-0.1-0.2-0.2
			c-0.5-0.7-0.2-2.4,0.5-2.9C40.5,0,40.9,0,41.3,0.1c5.2,0.4,8.8,1.8,13,3.6C54.3,3.7,54.4,3.7,54.5,3.7z"/>
	</g>
	<g>
		<path fill-rule="evenodd" clip-rule="evenodd" fill="#31AD87" d="M29.6,9.3c-0.5,0.5-0.8,0.5-1.3,0.2c-0.5-0.3-0.9-0.7-1.3-1.2
			c-1.5-1.9-2.4-4.1-1.9-6.5C25.1,1.2,25.4,1,26.3,1c3-0.1,6,0.5,8.6,1.6c0.7,0.3,0.7,0.2,0.3,0.8C33,6.3,31.3,7.6,29.6,9.3z
			 M26.8,2.2c-0.3,0-0.5,0-0.6,0.4c0,0.3,0.2,0.4,0.4,0.4c1.4,0,2.8-0.1,4.2,0c0,0,0-0.1,0-0.1C29.5,2.5,28.2,2.4,26.8,2.2z"/>
		<path fill-rule="evenodd" clip-rule="evenodd" fill="#31AD87" d="M17.3,7.2c0.1-0.6,0.3-1,0.9-1.3c1.7-0.9,3.4-1.7,5.2-2.5
			c0.5-0.2,0.7-0.2,0.8,0.4c0.2,1.7,0.7,4.2,2.5,5.6c0.4,0.5,0.3,0.7-0.3,0.8c-1.8,0.5-3.6,1.1-5.7,1.6c-0.6,0.2-1.2-0.4-1.8-0.9
			C17.8,10,17.2,8.7,17.3,7.2z M23.2,5.4c0.2-0.1,0.4-0.2,0.2-0.5c-0.1-0.2-0.3-0.2-0.5-0.1c-1.5,0.7-3,1.5-4.5,2.2
			c-0.2,0.1-0.2,0.2-0.1,0.5C19.9,6.8,21.5,6.1,23.2,5.4z"/>
		<path fill-rule="evenodd" clip-rule="evenodd" fill="#31AD87" d="M12.6,9.6c-0.2,0.3,0,0.5,0.1,0.7c0.1,0.2,0.3,0.3,0.5,0.2
			c1-0.6,2-1.1,3.1-1.6c0.5-0.2,0.2-0.7,0.1-1c-0.2-0.4-0.5-0.1-0.7,0c-1,0.5-1.9,1-2.9,1.5C12.9,9.4,12.7,9.5,12.6,9.6z"/>
	</g>
	<g>
		<path fill-rule="evenodd" clip-rule="evenodd" fill="#5DB241" d="M65.1,23.3c0,1.3,0,2.5,0,3.8c0,0.4-0.1,0.7-0.6,0.9
			c-0.1,0-0.1,0.1-0.2,0.1c-1.1,1-2.3,0.7-3.5,0c-0.3-0.1-0.4-0.3-0.5-0.6c-0.1-1.3-0.3-2.5-0.4-3.8c-0.1-0.7,0.1-0.9,0.7-0.5
			c1.4,0.8,2.6,0.6,3.8-0.3C64.9,22.7,65.2,22.6,65.1,23.3z"/>
		<path fill-rule="evenodd" clip-rule="evenodd" fill="#5DB241" d="M65.3,20.5c0.3,1.1-0.3,1.5-1.1,2c-1.2,0.7-2.2,0.8-3.4,0.1
			c-0.4-0.2-1-0.2-1.1-0.6c-0.2-0.7-0.3-1.5-0.3-2.2c0-0.1,0.1-0.2,0.2-0.3c0.1-0.1,0.1-0.1,0.2-0.2c2.3-1.5,2.6-1.5,5.1-0.3
			C65.6,19.5,65.2,20.1,65.3,20.5z"/>
		<path fill-rule="evenodd" clip-rule="evenodd" fill="#5DB241" d="M54.6,18.2c-0.1-0.3,0.1-0.5,0.3-0.6c0.3-0.1,0.5-0.3,0.8-0.4
			c0.8-0.5,1.5-0.9,2.2,0.1c0.2,0.2,0.5,0.3,0.8,0.4c0.2,0.1,0.5,0,0.5,0.3c0,0.2-0.3,0.3-0.4,0.4c-1.1,0.3-1.3,1-1.1,2.1
			c0.2,1.1,0.2,1.1-0.9,0.7c-1.2-0.3-2-0.9-2-2.2C54.7,18.6,54.6,18.4,54.6,18.2z"/>
		<path fill-rule="evenodd" clip-rule="evenodd" fill="#5DB241" d="M58.8,26.4c0.1,0.6,0,0.7-0.6,0.6c-1-0.3-1.6-0.9-1.8-2
			c-0.1-1.1-0.5-2.1-0.7-3.2c-0.1-0.4,0-0.5,0.4-0.4c0.5,0.2,1,0.4,1.6,0.6c0.3,0.1,0.4,0.3,0.5,0.6C58.4,24,58.6,25.3,58.8,26.4z"
			/>
		<path fill-rule="evenodd" clip-rule="evenodd" fill="#5DB241" d="M66.6,26.1c0.1-1.2,0.1-2.4,0.1-3.7c0-0.5,0.2-0.7,0.6-0.9
			c0.4-0.2,0.8-0.4,1.3-0.6c0.3-0.1,0.5-0.1,0.5,0.3c-0.2,1.5-0.4,3-0.6,4.5c0,0.3-1.5,1.2-1.7,1.1C66.5,26.6,66.7,26.3,66.6,26.1z"
			/>
		<path fill-rule="evenodd" clip-rule="evenodd" fill="#5DB241" d="M70,17.4c-0.1,0.7-0.2,1.3-0.2,2c0,0.3-0.2,0.4-0.4,0.5
			c-0.6,0.3-1.1,0.6-1.7,0.8c-0.4,0.2-0.5,0-0.5-0.4c0-0.3,0-0.7,0.1-1c0-0.5,0-1-0.7-1.2c-0.3-0.1-0.3-0.3,0-0.5
			c0.5-0.3,0.9-0.7,1.3-1.2c0,0,0,0,0,0c0.6-0.4,1.1,0.3,1.6,0.4C69.7,16.9,70,17,70,17.4z"/>
		<path fill="#5DB241" d="M68.6,14.8c-0.5-0.1-0.7-0.4-0.8-0.9c-0.2-0.8-0.8-1.4-1.6-1.5c-1.2-0.2-2.3,0.1-3.2,1
			c-0.4,0.4-0.6,0.5-0.9-0.1c-0.5-1-1.3-1.7-2.5-1.6c-0.7,0-1.3,0.4-1.9,0.8c-0.5,0.5-0.6,1.4-1,1.8c-0.5,0.4-1.4,0.4-1.9,0.9
			c-0.1,0.1-0.4,0.2-0.3,0.4c0.1,0.2,0.4,0.2,0.5,0.1c0.4-0.1,0.8-0.3,1.2-0.5c0.3-0.1,0.5-0.2,0.7,0.2c0.7,1.5,2.1,2,3.7,2.1
			c1,0,2,0.1,3,0.3c1.6,0.3,3.2-0.5,4-1.8c0.2-0.3,0.3-0.5,0.7-0.3c0.4,0.2,0.9,0.1,1-0.4C69.4,15,68.9,14.9,68.6,14.8z M58.3,14.3
			c-0.3-0.1-0.3-0.2-0.3-0.5c0.2-0.8,0.9-1.3,1.7-1.1c1,0.3,1.8,1.5,1.8,2.9C60.5,14.9,59.5,14.5,58.3,14.3z M66.4,15.9
			c-0.4,0.7-1,1.1-1.9,1c-0.2,0-0.6,0.1-0.7-0.2c-0.1-0.3,0.3-0.4,0.6-0.6c0.5-0.3,1-0.6,1.6-0.8c0.2,0,0.4-0.2,0.5,0
			C66.6,15.6,66.5,15.8,66.4,15.9z M65.9,14.8c-1.1,0.3-2.1,1-3.2,1.7c0.1-1,0.5-1.8,1-2.5c0.6-0.7,1.5-0.9,2.2-0.6
			c0.4,0.2,0.6,0.5,0.6,0.9C66.6,14.8,66.1,14.7,65.9,14.8z"/>
	</g>
	<path fill-rule="evenodd" clip-rule="evenodd" fill="#6C86C3" d="M13.4,56.4c0.4-1,0.8-2,1.2-3c0.2-0.5,0.4-0.6,0.9-0.3
		c1.9,1.3,3.8,2.6,5.7,3.9c0.3,0.2,0.4,0.5,0.2,0.8c-0.8,2.3-1.5,4.6-2.3,6.9c-0.2,0.5-0.3,1-0.5,1.5c-0.3,0.9-0.9,1.4-1.9,1.7
		c-1,0.2-2.1,0.2-3-0.2c-1.2-0.5-1.6-1.7-1.1-2.8c0.4-1.1,1.9-1.7,3-1.4c0.5,0.2,1,0.4,1.4,0.7c0.3,0.3,0.5,0.3,0.6-0.1
		c0.3-1.3,0.7-2.5,1.2-3.7c0.1-0.3,0-0.5-0.2-0.7c-1.1-0.8-2.2-1.5-3.2-2.3c-0.5-0.3-0.6-0.2-0.8,0.2c-0.5,1.4-1.1,2.8-1.6,4.2
		c-0.3,0.8-0.9,1.2-1.7,1.4c-0.9,0.2-1.7,0.2-2.6,0c-1-0.2-1.7-0.9-1.9-1.8c-0.2-0.8,0.2-1.6,1.1-2.1c1.2-0.7,2.3-0.6,3.4,0.2
		c0.6,0.4,0.7,0.3,0.9-0.2C12.6,58.4,13,57.4,13.4,56.4C13.4,56.4,13.4,56.4,13.4,56.4z M16.3,55.3c-0.3-0.2-0.5-0.3-0.6-0.1
		c-0.1,0.2-0.3,0.4,0.1,0.6c0.3,0.2,2.5,1.8,3.3,2.4c0.2,0.1,0.4,0.4,0.6,0.1c0.2-0.2,0-0.5-0.2-0.6C18.3,56.9,17.2,56.1,16.3,55.3z
		"/>
	<path fill-rule="evenodd" clip-rule="evenodd" fill="#6C86C3" d="M5.7,55.8c0.3,0.2,0.5,0.1,0.8,0c0.5-0.1,0.7,0.1,0.6,0.5
		c-0.1,0.3,0,0.6,0.2,0.8c0.3,0.3,0.2,0.6-0.2,0.6c-0.4,0-0.6,0.2-0.8,0.5c-0.2,0.3-0.5,0.3-0.7-0.1c-0.1-0.3-0.3-0.5-0.7-0.6
		c-0.4-0.1-0.5-0.4-0.2-0.7C4.9,56.7,5,56.5,5,56.2C5,55.6,5.2,55.5,5.7,55.8z"/>
	<path fill-rule="evenodd" clip-rule="evenodd" fill="#6C86C3" d="M11.4,57.6c-0.3-0.4-0.7-0.3-1.1-0.1c-0.4,0.2-0.7-0.1-0.6-0.4
		c0.1-0.5,0-0.8-0.3-1.2c-0.3-0.3-0.2-0.6,0.3-0.6c0.5,0,0.7-0.2,0.9-0.6c0.2-0.5,0.6-0.4,0.8,0.1c0.1,0.4,0.4,0.6,0.8,0.7
		c0.5,0.1,0.6,0.4,0.2,0.7c-0.4,0.3-0.5,0.6-0.4,1.1C12.1,57.7,11.8,57.8,11.4,57.6z"/>
</g>
</svg>
